{
	"sProcessing":     "Procesando...",
	"sLengthMenu":     "Mostrar _MENU_",
	"sZeroRecords":    "No se encontraron resultados",
	"sEmptyTable":     "Ningún dato disponible en esta tabla",
	"sInfo":           "Mostrando registros del _START_ al _END_ de un total de _TOTAL_ registros",
	"sInfoEmpty":      "Mostrando registros del 0 al 0 de un total de 0 registros",
	"sInfoFiltered":   "(filtrado de un total de _MAX_ registros)",
	"sInfoPostFix":    "",
	"search":         "<i class='fa fa-search'></i>",
	"sUrl":            "",
	"sInfoThousands":  ",",
	"sLoadingRecords": "Cargando...",
	"paginate": {
		"next":     "Siguiente",
		"previous": "Anterior"
	},
	"oAria": {
		"sSortAscending":  ": Activar para ordenar la columna de manera ascendente",
		"sSortDescending": ": Activar para ordenar la columna de manera descendente"
	}
}